%YAML 1.1
%TAG !u! tag:unity3d.com,2011:
--- !u!114 &11400000
MonoBehaviour:
  m_ObjectHideFlags: 0
  m_CorrespondingSourceObject: {fileID: 0}
  m_PrefabInstance: {fileID: 0}
  m_PrefabAsset: {fileID: 0}
  m_GameObject: {fileID: 0}
  m_Enabled: 1
  m_EditorHideFlags: 0
  m_Script: {fileID: 11500000, guid: f7c66e7078e070a4dbf5c229f60610f8, type: 3}
  m_Name: InputConfig
  m_EditorClassIdentifier: 
  inputMappings:
  - Controller: 1
    InputMaps:
    - InputAction: 1
      AxisName: Horizontal
    - InputAction: 2
      AxisName: Vertical
    - InputAction: 3
      AxisName: Fire
    - InputAction: 5
      AxisName: Submit
    - InputAction: 6
      AxisName: Cancel
  - Controller: 3
    InputMaps:
    - InputAction: 1
      AxisName: Horizontal1
    - InputAction: 2
      AxisName: Vertical1
    - InputAction: 3
      AxisName: Fire1
    - InputAction: 5
      AxisName: Submit1
    - InputAction: 6
      AxisName: Cancel1
  - Controller: 4
    InputMaps:
    - InputAction: 1
      AxisName: Horizontal2
    - InputAction: 2
      AxisName: Vertical2
    - InputAction: 3
      AxisName: Fire2
    - InputAction: 5
      AxisName: Submit2
    - InputAction: 6
      AxisName: Submit2
  - Controller: 5
    InputMaps:
    - InputAction: 1
      AxisName: Horizontal3
    - InputAction: 2
      AxisName: Vertical3
    - InputAction: 3
      AxisName: Fire3
    - InputAction: 5
      AxisName: Submit3
    - InputAction: 6
      AxisName: Cancel3
  - Controller: 6
    InputMaps:
    - InputAction: 1
      AxisName: Horizontal4
    - InputAction: 2
      AxisName: Vertical4
    - InputAction: 3
      AxisName: Fire4
    - InputAction: 5
      AxisName: Submit4
    - InputAction: 6
      AxisName: Cancel4
  - Controller: 2
    InputMaps:
    - InputAction: 1
      AxisName: Horizontal5
    - InputAction: 2
      AxisName: Vertical5
    - InputAction: 3
      AxisName: Fire5
    - InputAction: 5
      AxisName: Submit5
    - InputAction: 6
      AxisName: Cancel5
