%YAML 1.1
%TAG !u! tag:unity3d.com,2011:
--- !u!1045 &1
EditorBuildSettings:
  m_ObjectHideFlags: 0
  serializedVersion: 2
  m_Scenes:
  - enabled: 1
    path: Assets/Scenes/SelectCharacter.unity
    guid: f474e020343edb0429e8047268c826ce
  - enabled: 1
    path: Assets/Scenes/JohannesScene.unity
    guid: 22970d041f3c7a04085ff2e835a6e45a
  - enabled: 1
    path: Assets/Scenes/MainMenu.unity
    guid: b9cd6474638db4ddbafd7d3b9edc87d9
  m_configObjects: {}
