%YAML 1.1
%TAG !u! tag:unity3d.com,2011:
--- !u!21 &2100000
Material:
  serializedVersion: 6
  m_ObjectHideFlags: 0
  m_CorrespondingSourceObject: {fileID: 0}
  m_PrefabInstance: {fileID: 0}
  m_PrefabAsset: {fileID: 0}
  m_Name: StoneFloorTexture
  m_Shader: {fileID: 4800000, guid: 7f50d1ec77e2cc9459ca9d36924ffc53, type: 3}
  m_ShaderKeywords: AO_ON COLORCORRECTION_ON FRONTGRADIENT HEIGHT_FOG LIGHTMAP_ADD
    PIXELSNAP_ON SHADOW_ON TEXTUREMODULE_ON TOPGRADIENT UNITY_FOG _AOUV_UV0 _GRADIENTSPACE_WORLD_SPACE
    _GRADSETTINGS_B_USE_GLOBAL _GRADSETTINGS_D_USE_GLOBAL _GRADSETTINGS_F_USE_GLOBAL
    _GRADSETTINGS_L_USE_GLOBAL _GRADSETTINGS_R_USE_GLOBAL _GRADSETTINGS_T_USE_GLOBAL
    _LMAPBLENDINGMODE_ADD _MODE_OPAQUE _SHADING_B_VERTEX_COLOR _SHADING_D_VERTEX_COLOR
    _SHADING_F_VERTEXCOLOR _SHADING_L_VERTEX_COLOR _SHADING_R_VERTEX_COLOR _SHADING_T_VERTEX_COLOR
  m_LightmapFlags: 4
  m_EnableInstancingVariants: 0
  m_DoubleSidedGI: 0
  m_CustomRenderQueue: 3000
  stringTagMap:
    RenderType: Transparent
  disabledShaderPasses: []
  m_SavedProperties:
    serializedVersion: 3
    m_TexEnvs:
    - _AOTexture:
        m_Texture: {fileID: 0}
        m_Scale: {x: 1, y: 1}
        m_Offset: {x: 0, y: 0}
    - _AlphaTex:
        m_Texture: {fileID: 0}
        m_Scale: {x: 1, y: 1}
        m_Offset: {x: 0, y: 0}
    - _BumpMap:
        m_Texture: {fileID: 0}
        m_Scale: {x: 1, y: 1}
        m_Offset: {x: 0, y: 0}
    - _DetailAlbedoMap:
        m_Texture: {fileID: 0}
        m_Scale: {x: -9, y: 1}
        m_Offset: {x: 0, y: 0}
    - _DetailMask:
        m_Texture: {fileID: 0}
        m_Scale: {x: 1, y: 1}
        m_Offset: {x: 0, y: 0}
    - _DetailNormalMap:
        m_Texture: {fileID: 0}
        m_Scale: {x: 1, y: 1}
        m_Offset: {x: 0, y: 0}
    - _EmissionMap:
        m_Texture: {fileID: 0}
        m_Scale: {x: 6.25, y: 8.75}
        m_Offset: {x: 0, y: 0}
    - _MainTex:
        m_Texture: {fileID: 2800000, guid: 30a04d0e3b1135c46a36b73e9cc5d4c4, type: 3}
        m_Scale: {x: 6.25, y: 8.75}
        m_Offset: {x: 0, y: 0}
    - _MainTexture:
        m_Texture: {fileID: 2800000, guid: 30a04d0e3b1135c46a36b73e9cc5d4c4, type: 3}
        m_Scale: {x: 1, y: 1}
        m_Offset: {x: 0, y: 0}
    - _MetallicGlossMap:
        m_Texture: {fileID: 0}
        m_Scale: {x: 1, y: 1}
        m_Offset: {x: 0, y: 0}
    - _OcclusionMap:
        m_Texture: {fileID: 0}
        m_Scale: {x: 1, y: 1}
        m_Offset: {x: 0, y: 0}
    - _ParallaxMap:
        m_Texture: {fileID: 0}
        m_Scale: {x: 1, y: 1}
        m_Offset: {x: 0, y: 0}
    m_Floats:
    - PixelSnap: 1
    - _AOEnable: 0
    - _AOPower: 0
    - _AOuv: 0
    - _AmbientPower: 0
    - _Brightness: -0.21
    - _BumpScale: 1
    - _ColorCorrectionEnable: 1
    - _Cull: 2
    - _Cutoff: 0
    - _DetailNormalMapScale: 1
    - _DontMix: 0
    - _DstBlend: 10
    - _EnableExternalAlpha: 0
    - _Fade: 1
    - _FogHeight: 10
    - _FogYStartPos: -7.33
    - _GSpace: 0
    - _GlossMapScale: 1
    - _Glossiness: 0.5
    - _GlossyReflections: 1
    - _GradSettings_B: 0
    - _GradSettings_D: 0
    - _GradSettings_F: 0
    - _GradSettings_L: 0
    - _GradSettings_R: 0
    - _GradSettings_T: 1
    - _GradientHeight_B: 1
    - _GradientHeight_D: 1
    - _GradientHeight_F: 1
    - _GradientHeight_G: 1
    - _GradientHeight_L: 1
    - _GradientHeight_R: 1
    - _GradientHeight_T: 0.5
    - _GradientSpace: 0
    - _HFogEnable: 1
    - _LMPower: 0
    - _LmapBlendingMode: 0
    - _LmapEnable: 1
    - _MainTexturePower: 0.08
    - _Metallic: 0
    - _Mode: 1
    - _OcclusionStrength: 1
    - _OtherSettings: 1
    - _Parallax: 0.02
    - _RealtimeShadow: 1
    - _RimEnable: 0
    - _RimPower: 0.18
    - _Rotation_B: 0
    - _Rotation_D: 0
    - _Rotation_F: 0
    - _Rotation_G: 0
    - _Rotation_L: 0
    - _Rotation_R: 0
    - _Rotation_T: 226
    - _Saturation: 0
    - _Shading_B: 0
    - _Shading_D: 0
    - _Shading_F: 2
    - _Shading_L: 0
    - _Shading_R: 0
    - _Shading_T: 2
    - _ShowAO: 1
    - _ShowAmbientSettings: 0
    - _ShowBack: 0
    - _ShowBottom: 0
    - _ShowColorCorrection: 1
    - _ShowCustomShading: 1
    - _ShowFog: 1
    - _ShowFront: 1
    - _ShowGlobalGradientSettings: 1
    - _ShowLMap: 1
    - _ShowLeft: 0
    - _ShowRight: 0
    - _ShowTexture: 1
    - _ShowTop: 1
    - _SmoothnessTextureChannel: 0
    - _SpecularHighlights: 1
    - _SrcBlend: 5
    - _UVSec: 0
    - _UnityFogEnable: 1
    - _ZWrite: 0
    m_Colors:
    - _AOColor: {r: 1, g: 1, b: 1, a: 1}
    - _AmbientColor: {r: 0, g: 0, b: 0, a: 0}
    - _Color: {r: 1, g: 1, b: 1, a: 1}
    - _Color1_B: {r: 1, g: 1, b: 1, a: 1}
    - _Color1_D: {r: 1, g: 1, b: 1, a: 1}
    - _Color1_F: {r: 1, g: 0, b: 0, a: 1}
    - _Color1_L: {r: 1, g: 1, b: 1, a: 1}
    - _Color1_R: {r: 1, g: 1, b: 1, a: 1}
    - _Color1_T: {r: 0, g: 0.46518612, b: 1, a: 1}
    - _Color2_B: {r: 1, g: 1, b: 1, a: 1}
    - _Color2_D: {r: 1, g: 1, b: 1, a: 1}
    - _Color2_F: {r: 0, g: 0.7728834, b: 1, a: 1}
    - _Color2_L: {r: 1, g: 1, b: 1, a: 1}
    - _Color2_R: {r: 1, g: 1, b: 1, a: 1}
    - _Color2_T: {r: 1, g: 0, b: 0, a: 1}
    - _Color_Fog: {r: 0.23073156, g: 0.72885096, b: 0.8018868, a: 1}
    - _EmissionColor: {r: 0, g: 0, b: 0, a: 1}
    - _Flip: {r: 1, g: 1, b: 1, a: 1}
    - _GizmoPosition_B: {r: 0, g: 0, b: 10, a: 10}
    - _GizmoPosition_D: {r: 0, g: 0, b: 10, a: 10}
    - _GizmoPosition_F: {r: 0, g: 0, b: 10, a: 10}
    - _GizmoPosition_L: {r: 0, g: 0, b: 10, a: 10}
    - _GizmoPosition_R: {r: 0, g: 0, b: 10, a: 10}
    - _GizmoPosition_T: {r: 0, g: 0, b: 10, a: 10}
    - _GradientXStartPos_D: {r: 0, g: 0, b: 0, a: 0}
    - _GradientXStartPos_T: {r: 0, g: 0, b: 0, a: 0}
    - _GradientYStartPos_B: {r: 0, g: 0, b: 0, a: 0}
    - _GradientYStartPos_F: {r: 0, g: 0, b: 0, a: 0}
    - _GradientYStartPos_G: {r: 0, g: 0, b: 0, a: 0}
    - _GradientYStartPos_L: {r: 0, g: 0, b: 0, a: 0}
    - _GradientYStartPos_R: {r: 0, g: 0, b: 0, a: 0}
    - _LMColor: {r: 1, g: 1, b: 1, a: 1}
    - _RendererColor: {r: 1, g: 1, b: 1, a: 1}
    - _RimColor: {r: 0.8745099, g: 0.8745099, b: 0.8745099, a: 1}
    - _ShadowColor: {r: 0.1, g: 0.1, b: 0.1, a: 1}
    - _TintColor: {r: 1, g: 0.89767873, b: 0, a: 1}
