%YAML 1.1
%TAG !u! tag:unity3d.com,2011:
--- !u!1001 &1144431213000647852
PrefabInstance:
  m_ObjectHideFlags: 0
  serializedVersion: 2
  m_Modification:
    m_TransformParent: {fileID: 0}
    m_Modifications:
    - target: {fileID: 6698356830645225670, guid: 6e6076c7fea1f1142b849ed83eb333c4,
        type: 3}
      propertyPath: m_Name
      value: Indicator 2
      objectReference: {fileID: 0}
    - target: {fileID: 6698356830645225667, guid: 6e6076c7fea1f1142b849ed83eb333c4,
        type: 3}
      propertyPath: m_LocalPosition.x
      value: -10.030886
      objectReference: {fileID: 0}
    - target: {fileID: 6698356830645225667, guid: 6e6076c7fea1f1142b849ed83eb333c4,
        type: 3}
      propertyPath: m_LocalPosition.y
      value: -0.537688
      objectReference: {fileID: 0}
    - target: {fileID: 6698356830645225667, guid: 6e6076c7fea1f1142b849ed83eb333c4,
        type: 3}
      propertyPath: m_LocalPosition.z
      value: -6.514968
      objectReference: {fileID: 0}
    - target: {fileID: 6698356830645225667, guid: 6e6076c7fea1f1142b849ed83eb333c4,
        type: 3}
      propertyPath: m_LocalRotation.x
      value: -0.7071068
      objectReference: {fileID: 0}
    - target: {fileID: 6698356830645225667, guid: 6e6076c7fea1f1142b849ed83eb333c4,
        type: 3}
      propertyPath: m_LocalRotation.y
      value: 0
      objectReference: {fileID: 0}
    - target: {fileID: 6698356830645225667, guid: 6e6076c7fea1f1142b849ed83eb333c4,
        type: 3}
      propertyPath: m_LocalRotation.z
      value: 0
      objectReference: {fileID: 0}
    - target: {fileID: 6698356830645225667, guid: 6e6076c7fea1f1142b849ed83eb333c4,
        type: 3}
      propertyPath: m_LocalRotation.w
      value: 0.7071068
      objectReference: {fileID: 0}
    - target: {fileID: 6698356830645225667, guid: 6e6076c7fea1f1142b849ed83eb333c4,
        type: 3}
      propertyPath: m_RootOrder
      value: 0
      objectReference: {fileID: 0}
    - target: {fileID: 6698356830645225667, guid: 6e6076c7fea1f1142b849ed83eb333c4,
        type: 3}
      propertyPath: m_LocalEulerAnglesHint.x
      value: -90
      objectReference: {fileID: 0}
    - target: {fileID: 6698356830645225667, guid: 6e6076c7fea1f1142b849ed83eb333c4,
        type: 3}
      propertyPath: m_LocalEulerAnglesHint.y
      value: 0
      objectReference: {fileID: 0}
    - target: {fileID: 6698356830645225667, guid: 6e6076c7fea1f1142b849ed83eb333c4,
        type: 3}
      propertyPath: m_LocalEulerAnglesHint.z
      value: 0
      objectReference: {fileID: 0}
    - target: {fileID: 6698356830645225668, guid: 6e6076c7fea1f1142b849ed83eb333c4,
        type: 3}
      propertyPath: InitialModule.startColor.maxColor.r
      value: 1
      objectReference: {fileID: 0}
    - target: {fileID: 6698356830645225668, guid: 6e6076c7fea1f1142b849ed83eb333c4,
        type: 3}
      propertyPath: InitialModule.startColor.maxColor.g
      value: 0.54094976
      objectReference: {fileID: 0}
    - target: {fileID: 6698356830645225668, guid: 6e6076c7fea1f1142b849ed83eb333c4,
        type: 3}
      propertyPath: InitialModule.startColor.maxColor.b
      value: 0
      objectReference: {fileID: 0}
    m_RemovedComponents: []
  m_SourcePrefab: {fileID: 100100000, guid: 6e6076c7fea1f1142b849ed83eb333c4, type: 3}
